<?xml version="1.0" encoding="UTF-8" standalone="no"?>
<!-- Created with Inkscape (http://www.inkscape.org/) -->

<svg
   xmlns:dc="http://purl.org/dc/elements/1.1/"
   xmlns:cc="http://creativecommons.org/ns#"
   xmlns:rdf="http://www.w3.org/1999/02/22-rdf-syntax-ns#"
   xmlns:svg="http://www.w3.org/2000/svg"
   xmlns="http://www.w3.org/2000/svg"
   xmlns:sodipodi="http://sodipodi.sourceforge.net/DTD/sodipodi-0.dtd"
   xmlns:inkscape="http://www.inkscape.org/namespaces/inkscape"
   width="16"
   height="16"
   id="svg2"
   version="1.1"
   inkscape:version="0.48.0 r9654"
   inkscape:export-filename="/home/maxm/Projects/spotqueue/frontend/public_html/static/search.png"
   inkscape:export-xdpi="90"
   inkscape:export-ydpi="90"
   sodipodi:docname="search.svg">
  <defs
     id="defs4" />
  <sodipodi:namedview
     id="base"
     pagecolor="#ffffff"
     bordercolor="#666666"
     borderopacity="1.0"
     inkscape:pageopacity="0.0"
     inkscape:pageshadow="2"
     inkscape:zoom="12.362418"
     inkscape:cx="8.9439917"
     inkscape:cy="8.8104993"
     inkscape:document-units="px"
     inkscape:current-layer="g3841"
     showgrid="false"
     fit-margin-top="0"
     fit-margin-left="0"
     fit-margin-right="0"
     fit-margin-bottom="0"
     inkscape:window-width="1074"
     inkscape:window-height="812"
     inkscape:window-x="382"
     inkscape:window-y="158"
     inkscape:window-maximized="0" />
  <metadata
     id="metadata7">
    <rdf:RDF>
      <cc:Work
         rdf:about="">
        <dc:format>image/svg+xml</dc:format>
        <dc:type
           rdf:resource="http://purl.org/dc/dcmitype/StillImage" />
        <dc:title></dc:title>
      </cc:Work>
    </rdf:RDF>
  </metadata>
  <g
     inkscape:label="Layer 1"
     inkscape:groupmode="layer"
     id="layer1"
     transform="translate(-46.962551,-145.12912)">
    <g
       id="g3841"
       transform="matrix(1,0,0,-1,0,308.92493)"
       style="fill:none;stroke:#555555;stroke-opacity:1">
      <g
         id="g3845"
         transform="translate(2,2)">
        <path
           sodipodi:type="arc"
           style="fill:none;stroke:#555555;stroke-width:1.9300245;stroke-linecap:butt;stroke-linejoin:round;stroke-miterlimit:4;stroke-opacity:1;stroke-dasharray:none"
           id="path3069"
           sodipodi:cx="52.82362"
           sodipodi:cy="153.32362"
           sodipodi:rx="4.342555"
           sodipodi:ry="4.342555"
           d="m 57.166175,153.32362 c 0,2.39833 -1.944228,4.34256 -4.342555,4.34256 -2.398327,0 -4.342555,-1.94423 -4.342555,-4.34256 0,-2.39832 1.944228,-4.34255 4.342555,-4.34255 2.398327,0 4.342555,1.94423 4.342555,4.34255 z"
           transform="matrix(1.0362563,0,0,1.0362563,-2.2762578,-3.5867609)" />
        <path
           style="fill:none;stroke:#555555;stroke-width:2;stroke-linecap:round;stroke-linejoin:miter;stroke-miterlimit:4;stroke-opacity:1;stroke-dasharray:none"
           d="m 58.962551,148.79581 -3,3"
           id="path3839"
           inkscape:connector-curvature="0" />
      </g>
    </g>
  </g>
</svg>
